%YAML 1.1
%TAG !u! tag:unity3d.com,2011:
--- !u!1045 &1
EditorBuildSettings:
  m_ObjectHideFlags: 0
  serializedVersion: 2
  m_Scenes:
  - enabled: 1
    path: Assets/Scenes/PauseMenuWorking.unity
    guid: ea2c0c7ab137db8418dfc90ad45957bf
  - enabled: 1
    path: Assets/Scenes/Menu.unity
    guid: 8ac005bc66b34d447a17b50d2bbbb450
  - enabled: 1
    path: Assets/Scenes/GameScene.unity
    guid: 9fc0d4010bbf28b4594072e72b8655ab
  m_configObjects: {}
