# 3ds Max Wavefront OBJ Exporter v0.97b - (c)2007 guruware
# File Created: 02.04.2020 21:58:51

mtllib doom-book.mtl

#
# object Book
#

v  -18.0882 1.5783 38.1254
v  -18.0882 1.5783 -28.7002
v  -0.2130 1.5783 -28.7002
v  -0.2130 1.5783 38.1254
v  -1.5908 1.5783 38.1254
v  -1.5908 1.5783 28.1950
v  -16.5908 1.5783 28.1950
v  -16.5908 1.5783 38.1254
v  -16.5908 82.0728 38.1254
v  -18.0882 82.0728 38.1254
v  -18.0882 82.0728 -28.7002
v  -0.2130 82.0728 -28.7002
v  -0.2130 82.0728 38.1254
v  -1.5908 82.0728 38.1254
v  -16.5908 82.0728 28.1950
v  -1.5908 82.0728 28.1950
# 16 vertices

vn -0.5774 -0.5774 0.5774
vn -0.5774 -0.5774 -0.5774
vn 0.5774 -0.5774 -0.5774
vn 0.5774 -0.5774 0.5774
vn -0.5774 0.5774 0.5774
vn 0.5774 0.5774 0.5774
vn -0.5774 0.5774 -0.5774
vn 0.5774 0.5774 -0.5774
# 8 vertex normals

vt 0.5253 0.8014 0.0000
vt 0.5253 0.3523 0.0000
vt 0.5792 0.3523 0.0000
vt 0.5792 0.8014 0.0000
vt 0.5750 0.8014 0.0000
vt 0.5750 0.7347 0.0000
vt 0.5298 0.7347 0.0000
vt 0.5298 0.8014 0.0000
vt 0.6778 0.2024 0.0000
vt 0.6848 0.2023 0.0000
vt 0.6917 0.9707 0.0000
vt 0.6846 0.9708 0.0000
vt 0.0045 0.1897 0.0000
vt 0.4466 0.1876 0.0000
vt 0.4503 0.9807 0.0000
vt 0.0082 0.9829 0.0000
vt 0.5330 0.3451 0.0000
vt 0.5688 0.3451 0.0000
vt 0.5688 0.8902 0.0000
vt 0.5330 0.8902 0.0000
vt 0.0121 0.1937 0.0000
vt 0.4439 0.1916 0.0000
vt 0.4444 0.9763 0.0000
vt 0.0126 0.9783 0.0000
vt 0.6872 0.2022 0.0000
vt 0.6937 0.2021 0.0000
vt 0.7006 0.9705 0.0000
vt 0.6941 0.9706 0.0000
vt 0.5851 0.8187 0.0000
vt 0.5823 0.8187 0.0000
vt 0.5823 0.7564 0.0000
vt 0.5534 0.7564 0.0000
vt 0.5534 0.8187 0.0000
vt 0.5508 0.8187 0.0000
vt 0.5508 0.3992 0.0000
vt 0.5851 0.3992 0.0000
vt 0.5417 0.9458 0.0000
vt 0.5417 0.2641 0.0000
vt 0.5680 0.2641 0.0000
vt 0.5680 0.9458 0.0000
vt 0.6618 0.3207 0.0000
vt 0.7086 0.3207 0.0000
vt 0.7086 0.9557 0.0000
vt 0.6618 0.9557 0.0000
vt 0.7026 0.9366 0.0000
vt 0.6629 0.9366 0.0000
vt 0.6629 0.3678 0.0000
vt 0.7026 0.3678 0.0000
# 48 texture coords

o Book
g Book
usemtl 02___Default
s 2
f 1/1/1 2/2/2 3/3/3 4/4/4 5/5/1 6/6/5 7/7/6 8/8/4 
s 8
f 1/9/1 8/10/4 9/11/6 10/12/5 
s 64
f 2/13/2 1/14/1 10/15/5 11/16/7 
s 32
f 3/17/3 2/18/2 11/19/7 12/20/8 
s 16
f 4/21/4 3/22/3 12/23/8 13/24/6 
s 8
f 5/25/1 4/26/4 13/27/6 14/28/5 
s 4
f 10/29/5 9/30/6 15/31/4 16/32/1 14/33/5 13/34/6 12/35/8 11/36/7 
s 512
f 6/37/5 5/38/1 14/39/5 16/40/1 
s 1024
f 7/41/6 6/42/5 16/43/1 15/44/4 
s 2048
f 15/45/4 9/46/6 8/47/4 7/48/6 
# 10 polygons

